…
These shows that some of the missing values can’t be fixed because they lack critical information, this will be handled by removing them from the dataframe. Their number are very small and insignificant so it can be disregarded.

Find and clean “testing” or “repair” rides

Rides that are by the company employees for the purpose of testing or repairs are immaterial to the analysis being done and can actually skew the data. They will be isolated and eliminated.

all_trips %>% 
  select(start_station_id) %>% 
  count(start_station_id) %>% 
  arrange(desc(n))

## # A tibble: 1,312 × 2
##    start_station_id     n
##    <chr>            <int>
##  1 13022            81578
##  2 LF-005           46593
##  3 TA1308000050     43541
##  4 13042            42671
##  5 13300            42225
##  6 TA1307000039     38861
##  7 13008            37142
##  8 KA1503000014     36188
##  9 13179            35857
## 10 TA1308000001     35376
## # … with 1,302 more rows

all_trips %>% 
  select(end_station_id) %>% 
  count(end_station_id) %>% 
  arrange(desc(n))

## # A tibble: 1,317 × 2
##    end_station_id     n
##    <chr>          <int>
##  1 13022          81458
##  2 LF-005         45159
##  3 TA1308000050   44744
##  4 13042          42189
##  5 KA1503000014   42012
##  6 13300          41533
##  7 <NA>           40880
##  8 TA1307000039   38672
##  9 13008          37270
## 10 13179          36686
## # … with 1,307 more rows
…
is.factor(all_trips_v2$ride_length)

## [1] FALSE

all_trips_v2$ride_length <- as.numeric(as.character(all_trips_v2$ride_length))
is.numeric(all_trips_v2$ride_length)

## [1] TRUE

all_trips_v2%>% 
  select(start_station_id) %>% 
  count(start_station_id) %>% 
  arrange(desc(n))

## # A tibble: 1,306 × 2
##    start_station_id     n
##    <chr>            <int>
##  1 13022            79566
##  2 LF-005           45310
##  3 TA1308000050     42731
##  4 13042            41847
##  5 13300            41325
##  6 TA1307000039     38115
##  7 13008            36247
##  8 KA1503000014     35531
##  9 13179            35118
## 10 TA1308000001     34776
## # … with 1,296 more rows

all_trips_v2%>% 
  select(end_station_id) %>% 
  count(end_station_id) %>% 
  arrange(desc(n))

## # A tibble: 1,313 × 2
##    end_station_id     n
##    <chr>          <int>
##  1 13022          79717
##  2 LF-005         44366
##  3 TA1308000050   43686
##  4 13042          41423
##  5 KA1503000014   41239
##  6 13300          40734
##  7 TA1307000039   37702
##  8 13008          36598
##  9 13179          35887
## 10 TA1308000001   34615
## # … with 1,303 more rows
…
